{
  "images" : [
    {
      "idiom" : "iphone",
      "scale" : "1x"
    },
    {
      "idiom" : "iphone",
      "filename" : "txtCalendar@2x.png",
      "scale" : "2x"
    },
    {
      "idiom" : "iphone",
      "filename" : "txtCalendar.png",
      "scale" : "3x"
    },
    {
      "idiom" : "ipad",
      "filename" : "txtCalendar@1x.png",
      "scale" : "1x"
    },
    {
      "idiom" : "ipad",
      "filename" : "txtCalendar@2x-1.png",
      "scale" : "2x"
    }
  ],
  "info" : {
    "version" : 1,
    "author" : "xcode"
  }
}